// Jest Snapshot v1, https://goo.gl/fbAQLP

exports[`LineChart should render correctly 1`] = `
.emotion-0 {
  box-sizing: border-box;
  margin: 0;
  min-width: 0;
  font-size: 16px;
}

@media screen and (min-width:40em) {
  .emotion-0 {
    font-size: 20px;
  }
}

<div>
  <div
    class="emotion-0"
  >
    <div>
      <div
        class="chart-container"
      >
        <div
          class="graph-svg-tip comparison"
          style="top: 0px; left: 0px; opacity: 0;"
        >
          <span
            class="title"
          />
          
				
          <ul
            class="data-point-list"
          />
          
				
          <div
            class="svg-pointer"
          />
        </div>
        <svg
          class="frappe-chart chart"
          height="200"
          width="NaN"
        >
          <defs>
            <lineargradient
              id="path-fill-gradient-#7cd6fd-lighter"
              x1="0"
              x2="0"
              y1="0"
              y2="1"
            >
              <stop
                offset="0%"
                stop-opacity="0.4"
                style="stop-color: #7cd6fd"
              />
              <stop
                offset="50%"
                stop-opacity="0.2"
                style="stop-color: #7cd6fd"
              />
              <stop
                offset="100%"
                stop-opacity="0"
                style="stop-color: #7cd6fd"
              />
            </lineargradient>
            <lineargradient
              id="path-fill-gradient-#7cd6fd-lighter"
              x1="0"
              x2="0"
              y1="0"
              y2="1"
            >
              <stop
                offset="0%"
                stop-opacity="0.4"
                style="stop-color: #7cd6fd"
              />
              <stop
                offset="50%"
                stop-opacity="0.2"
                style="stop-color: #7cd6fd"
              />
              <stop
                offset="100%"
                stop-opacity="0"
                style="stop-color: #7cd6fd"
              />
            </lineargradient>
          </defs>
          <g
            class="line-chart chart-draw-area"
            transform="translate(50, 30)"
          >
            <g
              class="y axis"
              transform=""
            >
              <g
                stroke-opacity="1"
                transform="translate(0, 130)"
              >
                <line
                  class="line-horizontal "
                  style="stroke: #dadada;"
                  x1="-6"
                  x2="NaN"
                  y1="0"
                  y2="0"
                />
                <text
                  dy="3px"
                  font-size="10px"
                  text-anchor="start"
                  x="-2"
                  y="0"
                >
                  -20
                </text>
                <animatetransform
                  attributeName="transform"
                  begin="0s"
                  calcMode="spline"
                  dur="0.35s"
                  fill="freeze"
                  from="0, 130"
                  keySplines="0.1 0.8 0.2 1"
                  keyTimes="0;1"
                  to="0, 130"
                  type="translate"
                  values="0, 130;0, 130"
                />
              </g>
              <g
                stroke-opacity="1"
                transform="translate(0, 104)"
              >
                <line
                  class="line-horizontal "
                  style="stroke: #dadada;"
                  x1="-6"
                  x2="NaN"
                  y1="0"
                  y2="0"
                />
                <text
                  dy="3px"
                  font-size="10px"
                  text-anchor="start"
                  x="-2"
                  y="0"
                >
                  0
                </text>
                <animatetransform
                  attributeName="transform"
                  begin="0s"
                  calcMode="spline"
                  dur="0.35s"
                  fill="freeze"
                  from="0, 104"
                  keySplines="0.1 0.8 0.2 1"
                  keyTimes="0;1"
                  to="0, 97.5"
                  type="translate"
                  values="0, 104;0, 97.5"
                />
              </g>
              <g
                stroke-opacity="1"
                transform="translate(0, 78)"
              >
                <line
                  class="line-horizontal "
                  style="stroke: #dadada;"
                  x1="-6"
                  x2="NaN"
                  y1="0"
                  y2="0"
                />
                <text
                  dy="3px"
                  font-size="10px"
                  text-anchor="start"
                  x="-2"
                  y="0"
                >
                  20
                </text>
                <animatetransform
                  attributeName="transform"
                  begin="0s"
                  calcMode="spline"
                  dur="0.35s"
                  fill="freeze"
                  from="0, 78"
                  keySplines="0.1 0.8 0.2 1"
                  keyTimes="0;1"
                  to="0, 65"
                  type="translate"
                  values="0, 78;0, 65"
                />
              </g>
              <g
                stroke-opacity="1"
                transform="translate(0, 52)"
              >
                <line
                  class="line-horizontal "
                  style="stroke: #dadada;"
                  x1="-6"
                  x2="NaN"
                  y1="0"
                  y2="0"
                />
                <text
                  dy="3px"
                  font-size="10px"
                  text-anchor="start"
                  x="-2"
                  y="0"
                >
                  40
                </text>
                <animatetransform
                  attributeName="transform"
                  begin="0s"
                  calcMode="spline"
                  dur="0.35s"
                  fill="freeze"
                  from="0, 52"
                  keySplines="0.1 0.8 0.2 1"
                  keyTimes="0;1"
                  to="0, 32.5"
                  type="translate"
                  values="0, 52;0, 32.5"
                />
              </g>
              <g
                stroke-opacity="1"
                transform="translate(0, 26)"
              >
                <line
                  class="line-horizontal "
                  style="stroke: #dadada;"
                  x1="-6"
                  x2="NaN"
                  y1="0"
                  y2="0"
                />
                <text
                  dy="3px"
                  font-size="10px"
                  text-anchor="start"
                  x="-2"
                  y="0"
                >
                  60
                </text>
                <animatetransform
                  attributeName="transform"
                  begin="0s"
                  calcMode="spline"
                  dur="0.35s"
                  fill="freeze"
                  from="0, 26"
                  keySplines="0.1 0.8 0.2 1"
                  keyTimes="0;1"
                  to="0, 0"
                  type="translate"
                  values="0, 26;0, 0"
                />
              </g>
              <g
                stroke-opacity="1"
                transform="translate(0, 0)"
              >
                <line
                  class="line-horizontal "
                  style="stroke: #dadada;"
                  x1="-6"
                  x2="NaN"
                  y1="0"
                  y2="0"
                />
                <text
                  dy="3px"
                  font-size="10px"
                  text-anchor="start"
                  x="-2"
                  y="0"
                >
                  60
                </text>
                <animatetransform
                  attributeName="transform"
                  begin="0s"
                  calcMode="spline"
                  dur="0.35s"
                  fill="freeze"
                  from="0, 0"
                  keySplines="0.1 0.8 0.2 1"
                  keyTimes="0;1"
                  to="0, 0"
                  type="translate"
                  values="0, 0;0, 0"
                />
              </g>
            </g>
            <g
              class="x axis"
              transform=""
            >
              <g
                transform="translate(NaN, 0)"
              >
                <line
                  class="line-vertical "
                  style="stroke: #dadada;"
                  x1="0"
                  x2="0"
                  y1="136"
                  y2="-6"
                />
                <text
                  dy="10px"
                  font-size="10px"
                  text-anchor="middle"
                  x="0"
                  y="140"
                >
                  Sun
                </text>
                <animatetransform
                  attributeName="transform"
                  begin="0s"
                  calcMode="spline"
                  dur="0.35s"
                  fill="freeze"
                  from="NaN, 0"
                  keySplines="0.1 0.8 0.2 1"
                  keyTimes="0;1"
                  to="NaN, 0"
                  type="translate"
                  values="NaN, 0;NaN, 0"
                />
              </g>
              <g
                transform="translate(NaN, 0)"
              >
                <line
                  class="line-vertical "
                  style="stroke: #dadada;"
                  x1="0"
                  x2="0"
                  y1="136"
                  y2="-6"
                />
                <text
                  dy="10px"
                  font-size="10px"
                  text-anchor="middle"
                  x="0"
                  y="140"
                >
                  Mon
                </text>
                <animatetransform
                  attributeName="transform"
                  begin="0s"
                  calcMode="spline"
                  dur="0.35s"
                  fill="freeze"
                  from="NaN, 0"
                  keySplines="0.1 0.8 0.2 1"
                  keyTimes="0;1"
                  to="NaN, 0"
                  type="translate"
                  values="NaN, 0;NaN, 0"
                />
              </g>
              <g
                transform="translate(NaN, 0)"
              >
                <line
                  class="line-vertical "
                  style="stroke: #dadada;"
                  x1="0"
                  x2="0"
                  y1="136"
                  y2="-6"
                />
                <text
                  dy="10px"
                  font-size="10px"
                  text-anchor="middle"
                  x="0"
                  y="140"
                >
                  Tue
                </text>
                <animatetransform
                  attributeName="transform"
                  begin="0s"
                  calcMode="spline"
                  dur="0.35s"
                  fill="freeze"
                  from="NaN, 0"
                  keySplines="0.1 0.8 0.2 1"
                  keyTimes="0;1"
                  to="NaN, 0"
                  type="translate"
                  values="NaN, 0;NaN, 0"
                />
              </g>
              <g
                transform="translate(NaN, 0)"
              >
                <line
                  class="line-vertical "
                  style="stroke: #dadada;"
                  x1="0"
                  x2="0"
                  y1="136"
                  y2="-6"
                />
                <text
                  dy="10px"
                  font-size="10px"
                  text-anchor="middle"
                  x="0"
                  y="140"
                >
                  Wed
                </text>
                <animatetransform
                  attributeName="transform"
                  begin="0s"
                  calcMode="spline"
                  dur="0.35s"
                  fill="freeze"
                  from="NaN, 0"
                  keySplines="0.1 0.8 0.2 1"
                  keyTimes="0;1"
                  to="NaN, 0"
                  type="translate"
                  values="NaN, 0;NaN, 0"
                />
              </g>
              <g
                transform="translate(NaN, 0)"
              >
                <line
                  class="line-vertical "
                  style="stroke: #dadada;"
                  x1="0"
                  x2="0"
                  y1="136"
                  y2="-6"
                />
                <text
                  dy="10px"
                  font-size="10px"
                  text-anchor="middle"
                  x="0"
                  y="140"
                >
                  Thu
                </text>
                <animatetransform
                  attributeName="transform"
                  begin="0s"
                  calcMode="spline"
                  dur="0.35s"
                  fill="freeze"
                  from="NaN, 0"
                  keySplines="0.1 0.8 0.2 1"
                  keyTimes="0;1"
                  to="NaN, 0"
                  type="translate"
                  values="NaN, 0;NaN, 0"
                />
              </g>
              <g
                transform="translate(NaN, 0)"
              >
                <line
                  class="line-vertical "
                  style="stroke: #dadada;"
                  x1="0"
                  x2="0"
                  y1="136"
                  y2="-6"
                />
                <text
                  dy="10px"
                  font-size="10px"
                  text-anchor="middle"
                  x="0"
                  y="140"
                >
                  Fri
                </text>
                <animatetransform
                  attributeName="transform"
                  begin="0s"
                  calcMode="spline"
                  dur="0.35s"
                  fill="freeze"
                  from="NaN, 0"
                  keySplines="0.1 0.8 0.2 1"
                  keyTimes="0;1"
                  to="NaN, 0"
                  type="translate"
                  values="NaN, 0;NaN, 0"
                />
              </g>
              <g
                transform="translate(NaN, 0)"
              >
                <line
                  class="line-vertical "
                  style="stroke: #dadada;"
                  x1="0"
                  x2="0"
                  y1="136"
                  y2="-6"
                />
                <text
                  dy="10px"
                  font-size="10px"
                  text-anchor="middle"
                  x="0"
                  y="140"
                >
                  Sat
                </text>
                <animatetransform
                  attributeName="transform"
                  begin="0s"
                  calcMode="spline"
                  dur="0.35s"
                  fill="freeze"
                  from="NaN, 0"
                  keySplines="0.1 0.8 0.2 1"
                  keyTimes="0;1"
                  to="NaN, 0"
                  type="translate"
                  values="NaN, 0;NaN, 0"
                />
              </g>
              <g
                transform="translate(NaN, 0)"
              >
                <line
                  class="line-vertical "
                  style="stroke: #dadada;"
                  x1="0"
                  x2="0"
                  y1="136"
                  y2="-6"
                />
                <text
                  dy="10px"
                  font-size="10px"
                  text-anchor="middle"
                  x="0"
                  y="140"
                >
                  Sun
                </text>
                <animatetransform
                  attributeName="transform"
                  begin="0s"
                  calcMode="spline"
                  dur="0.35s"
                  fill="freeze"
                  from="NaN, 0"
                  keySplines="0.1 0.8 0.2 1"
                  keyTimes="0;1"
                  to="NaN, 0"
                  type="translate"
                  values="NaN, 0;NaN, 0"
                />
              </g>
            </g>
            <g
              class="dataset-units dataset-line dataset-0"
              transform=""
            >
              <path
                class="line-graph-path"
                d="MNaN,130LNaN,130LNaN,130LNaN,130LNaN,130LNaN,130LNaN,130LNaN,130"
                style="stroke: #7cd6fd; fill: none; stroke-width: 2;"
              >
                <animate
                  attributeName="d"
                  begin="0s"
                  calcMode="spline"
                  dur="0.35s"
                  fill="freeze"
                  from="MNaN,130LNaN,130LNaN,130LNaN,130LNaN,130LNaN,130LNaN,130LNaN,130"
                  keySplines="0.1 0.8 0.2 1"
                  keyTimes="0;1"
                  to="MNaN,68.25LNaN,32.5LNaN,48.75LNaN,40.63LNaN,84.5LNaN,13LNaN,69.88LNaN,104"
                  values="MNaN,130LNaN,130LNaN,130LNaN,130LNaN,130LNaN,130LNaN,130LNaN,130;MNaN,68.25LNaN,32.5LNaN,48.75LNaN,40.63LNaN,84.5LNaN,13LNaN,69.88LNaN,104"
                />
              </path>
              <path
                class="region-fill"
                d="MNaN,130LNaN,130LNaN,130LNaN,130LNaN,130LNaN,130LNaN,130LNaN,130LNaN,130LNaN,130"
                style="stroke: none; fill: url(#path-fill-gradient-#7cd6fd-lighter); stroke-width: 2;"
              >
                <animate
                  attributeName="d"
                  begin="0s"
                  calcMode="spline"
                  dur="0.35s"
                  fill="freeze"
                  from="MNaN,130LNaN,130LNaN,130LNaN,130LNaN,130LNaN,130LNaN,130LNaN,130LNaN,130LNaN,130"
                  keySplines="0.1 0.8 0.2 1"
                  keyTimes="0;1"
                  to="MNaN,97.5LNaN,68.25LNaN,32.5LNaN,48.75LNaN,40.63LNaN,84.5LNaN,13LNaN,69.88LNaN,104LNaN, 97.5"
                  values="MNaN,130LNaN,130LNaN,130LNaN,130LNaN,130LNaN,130LNaN,130LNaN,130LNaN,130LNaN,130;MNaN,97.5LNaN,68.25LNaN,32.5LNaN,48.75LNaN,40.63LNaN,84.5LNaN,13LNaN,69.88LNaN,104LNaN, 97.5"
                />
              </path>
              <circle
                cx="NaN"
                cy="130"
                data-point-index="0"
                r="4"
                style="fill: #7cd6fd"
              >
                <animate
                  attributeName="cx"
                  begin="0s"
                  calcMode="spline"
                  dur="0.35s"
                  fill="freeze"
                  from="NaN"
                  keySplines="0.1 0.8 0.2 1"
                  keyTimes="0;1"
                  to="NaN"
                  values="NaN;NaN"
                />
                <animate
                  attributeName="cy"
                  begin="0s"
                  calcMode="spline"
                  dur="0.35s"
                  fill="freeze"
                  from="130"
                  keySplines="0.1 0.8 0.2 1"
                  keyTimes="0;1"
                  to="68.25"
                  values="130;68.25"
                />
              </circle>
              <circle
                cx="NaN"
                cy="130"
                data-point-index="1"
                r="4"
                style="fill: #7cd6fd"
              >
                <animate
                  attributeName="cx"
                  begin="0s"
                  calcMode="spline"
                  dur="0.35s"
                  fill="freeze"
                  from="NaN"
                  keySplines="0.1 0.8 0.2 1"
                  keyTimes="0;1"
                  to="NaN"
                  values="NaN;NaN"
                />
                <animate
                  attributeName="cy"
                  begin="0s"
                  calcMode="spline"
                  dur="0.35s"
                  fill="freeze"
                  from="130"
                  keySplines="0.1 0.8 0.2 1"
                  keyTimes="0;1"
                  to="32.5"
                  values="130;32.5"
                />
              </circle>
              <circle
                cx="NaN"
                cy="130"
                data-point-index="2"
                r="4"
                style="fill: #7cd6fd"
              >
                <animate
                  attributeName="cx"
                  begin="0s"
                  calcMode="spline"
                  dur="0.35s"
                  fill="freeze"
                  from="NaN"
                  keySplines="0.1 0.8 0.2 1"
                  keyTimes="0;1"
                  to="NaN"
                  values="NaN;NaN"
                />
                <animate
                  attributeName="cy"
                  begin="0s"
                  calcMode="spline"
                  dur="0.35s"
                  fill="freeze"
                  from="130"
                  keySplines="0.1 0.8 0.2 1"
                  keyTimes="0;1"
                  to="48.75"
                  values="130;48.75"
                />
              </circle>
              <circle
                cx="NaN"
                cy="130"
                data-point-index="3"
                r="4"
                style="fill: #7cd6fd"
              >
                <animate
                  attributeName="cx"
                  begin="0s"
                  calcMode="spline"
                  dur="0.35s"
                  fill="freeze"
                  from="NaN"
                  keySplines="0.1 0.8 0.2 1"
                  keyTimes="0;1"
                  to="NaN"
                  values="NaN;NaN"
                />
                <animate
                  attributeName="cy"
                  begin="0s"
                  calcMode="spline"
                  dur="0.35s"
                  fill="freeze"
                  from="130"
                  keySplines="0.1 0.8 0.2 1"
                  keyTimes="0;1"
                  to="40.63"
                  values="130;40.63"
                />
              </circle>
              <circle
                cx="NaN"
                cy="130"
                data-point-index="4"
                r="4"
                style="fill: #7cd6fd"
              >
                <animate
                  attributeName="cx"
                  begin="0s"
                  calcMode="spline"
                  dur="0.35s"
                  fill="freeze"
                  from="NaN"
                  keySplines="0.1 0.8 0.2 1"
                  keyTimes="0;1"
                  to="NaN"
                  values="NaN;NaN"
                />
                <animate
                  attributeName="cy"
                  begin="0s"
                  calcMode="spline"
                  dur="0.35s"
                  fill="freeze"
                  from="130"
                  keySplines="0.1 0.8 0.2 1"
                  keyTimes="0;1"
                  to="84.5"
                  values="130;84.5"
                />
              </circle>
              <circle
                cx="NaN"
                cy="130"
                data-point-index="5"
                r="4"
                style="fill: #7cd6fd"
              >
                <animate
                  attributeName="cx"
                  begin="0s"
                  calcMode="spline"
                  dur="0.35s"
                  fill="freeze"
                  from="NaN"
                  keySplines="0.1 0.8 0.2 1"
                  keyTimes="0;1"
                  to="NaN"
                  values="NaN;NaN"
                />
                <animate
                  attributeName="cy"
                  begin="0s"
                  calcMode="spline"
                  dur="0.35s"
                  fill="freeze"
                  from="130"
                  keySplines="0.1 0.8 0.2 1"
                  keyTimes="0;1"
                  to="13"
                  values="130;13"
                />
              </circle>
              <circle
                cx="NaN"
                cy="130"
                data-point-index="6"
                r="4"
                style="fill: #7cd6fd"
              >
                <animate
                  attributeName="cx"
                  begin="0s"
                  calcMode="spline"
                  dur="0.35s"
                  fill="freeze"
                  from="NaN"
                  keySplines="0.1 0.8 0.2 1"
                  keyTimes="0;1"
                  to="NaN"
                  values="NaN;NaN"
                />
                <animate
                  attributeName="cy"
                  begin="0s"
                  calcMode="spline"
                  dur="0.35s"
                  fill="freeze"
                  from="130"
                  keySplines="0.1 0.8 0.2 1"
                  keyTimes="0;1"
                  to="69.88"
                  values="130;69.88"
                />
              </circle>
              <circle
                cx="NaN"
                cy="130"
                data-point-index="7"
                r="4"
                style="fill: #7cd6fd"
              >
                <animate
                  attributeName="cx"
                  begin="0s"
                  calcMode="spline"
                  dur="0.35s"
                  fill="freeze"
                  from="NaN"
                  keySplines="0.1 0.8 0.2 1"
                  keyTimes="0;1"
                  to="NaN"
                  values="NaN;NaN"
                />
                <animate
                  attributeName="cy"
                  begin="0s"
                  calcMode="spline"
                  dur="0.35s"
                  fill="freeze"
                  from="130"
                  keySplines="0.1 0.8 0.2 1"
                  keyTimes="0;1"
                  to="104"
                  values="130;104"
                />
              </circle>
            </g>
          </g>
        </svg>
      </div>
    </div>
  </div>
</div>
`;
